Testing
…
At the moment the API is restricted to the institutional network.
Because of that the package works only in this environment. We hope to
make the API available to the general public as soon as possible.

Getting catalog

get_catalog() returns a dataframe containing all the
datasets available in the repository. The encuesta column
contains the survey where the dataset comes from. The version
column indicates the year or quarterly when the dataset was
collected.

get_catalog()
#> # A tibble: 194 x 2
#> # Groups:   encuesta [5]
#>    encuesta     version    
#>    <chr>        <chr>      
#>  1 epf_gastos   viii       
#>  2 epf_personas viii       
#>  3 epf_gastos   vii        
#>  4 epf_personas vii        
#>  5 ene          2022-10-son
#>  6 ene          2022-09-aso
#>  7 ene          2022-08-jas
#>  8 ene          2022-07-jja
#>  9 ene          2022-06-mjj
#> 10 ene          2022-05-amj
#> # i 184 more rows

The dataset parameter retrieves information for a
specific survey. In this example we are using ene, which
returns all the available versions for that survey. We will store the
first file in a variable called file.

get_catalog(dataset = "ene")
#> # A tibble: 153 x 2
#> # Groups:   encuesta [1]
#>    encuesta version    
#>    <chr>    <chr>      
#>  1 ene      2022-10-son
#>  2 ene      2022-09-aso
#>  3 ene      2022-08-jas
#>  4 ene      2022-07-jja
#>  5 ene      2022-06-mjj
#>  6 ene      2022-05-amj
#>  7 ene      2022-04-mam
#>  8 ene      2022-03-fma
#>  9 ene      2022-02-efm
#> 10 ene      2022-01-def
#> # i 143 more rows
…
get_catalog("ene")
#> # A tibble: 153 x 2
#> # Groups:   encuesta [1]
#>    encuesta version    
#>    <chr>    <chr>      
#>  1 ene      2022-10-son
#>  2 ene      2022-09-aso
#>  3 ene      2022-08-jas
#>  4 ene      2022-07-jja
#>  5 ene      2022-06-mjj
#>  6 ene      2022-05-amj
#>  7 ene      2022-04-mam
#>  8 ene      2022-03-fma
#>  9 ene      2022-02-efm
#> 10 ene      2022-01-def
#> # i 143 more rows
…
