Examples • inedata
…
unemployment_serie
#> # A tibble: 33 × 7
#> # Groups:   ano_trimestre [2]
#>    ano_trimestre mes_central work_force unemployed unemployment_rate sexo       
#>    <fct>               <dbl>      <dbl>      <dbl>             <dbl> <chr>      
#>  1 2023                    7    9895618     890175               9   Nationwide…
#>  2 2023                    6    9896817     868170               8.8 Nationwide…
#>  3 2023                    5    9877419     842305               8.5 Nationwide…
#>  4 2023                    4    9876146     841916               8.5 Nationwide…
#>  5 2023                    3    9860631     853902               8.7 Nationwide…
#>  6 2023                    2    9876077     869932               8.8 Nationwide…
#>  7 2023                    1    9854774     824612               8.4 Nationwide…
#>  8 2022                   12    9795863     787317               8   Nationwide…
#>  9 2022                   11    9730299     765069               7.9 Nationwide…
#> 10 2022                   10    9650165     767075               7.9 Nationwide…
#> # ℹ 23 more rows
#> # ℹ 1 more variable: periodo <fct>
…
