Testing • inedata
…
ENUSC

ESI

ENE

It also adds summary data in the form of number of columns and rows
per dataset (in the n_col and n_row columns,
respectively). The survey column contains the survey where the
dataset comes from. The version column indicates the year or
quarter when the dataset was collected.

get_catalog()
#> # A tibble: 203 × 5
#>    survey version      n_row n_col file_size_MB
#>    <chr>  <chr>        <int> <int>        <dbl>
#>  1 ene    2023-07-jja 102577   173        137. 
#>  2 ene    2023-06-mjj 101592   173        135. 
#>  3 ene    2023-05-amj  98968   172        129. 
#>  4 ene    2023-04-mam  98355   172        132. 
#>  5 ene    2023-03-fma  95131   172        126. 
#>  6 ene    2023-02-efm  96167   172        129. 
#>  7 ene    2023-01-def  93461   173        124. 
#>  8 ene    2022-12-nde  94042   173        125. 
#>  9 ene    2022-11-ond  93103   173        123. 
#> 10 ene    2022-10-son  92761   174         18.5
#> # ℹ 193 more rows

The dataset parameter retrieves information for a
specific survey. In this example we are using ene, which
returns all the available versions for that survey. We will store the
file version for the june-august-september quarter of 2011 (2011-08-jas)
in a variable called file.

get_catalog(dataset = "ene")
#> # A tibble: 162 × 5
#>    survey version      n_row n_col file_size_MB
#>    <chr>  <chr>        <int> <int>        <dbl>
#>  1 ene    2023-07-jja 102577   173        137. 
#>  2 ene    2023-06-mjj 101592   173        135. 
#>  3 ene    2023-05-amj  98968   172        129. 
#>  4 ene    2023-04-mam  98355   172        132. 
#>  5 ene    2023-03-fma  95131   172        126. 
#>  6 ene    2023-02-efm  96167   172        129. 
#>  7 ene    2023-01-def  93461   173        124. 
#>  8 ene    2022-12-nde  94042   173        125. 
#>  9 ene    2022-11-ond  93103   173        123. 
#> 10 ene    2022-10-son  92761   174         18.5
#> # ℹ 152 more rows
…
